<?xml version="1.0" encoding="utf-8"?>
<!-- Generator: Adobe Illustrator 17.1.0, SVG Export Plug-In . SVG Version: 6.00 Build 0)  -->
<!DOCTYPE svg PUBLIC "-//W3C//DTD SVG 1.1//EN" "http://www.w3.org/Graphics/SVG/1.1/DTD/svg11.dtd">
<svg version="1.1" id="Layer_1" xmlns="http://www.w3.org/2000/svg" xmlns:xlink="http://www.w3.org/1999/xlink" x="0px" y="0px"
	 width="9.035px" height="69.333px" viewBox="0 0 9.035 69.333" enable-background="new 0 0 9.035 69.333" xml:space="preserve">
<polygon fill="#000100" points="1.666,69.333 9.035,34.666 1.666,0 0,0 7.368,34.666 0,69.333 "/>
</svg>
