<?xml version="1.0" encoding="utf-8"?>
<!-- Generator: Adobe Illustrator 22.1.0, SVG Export Plug-In . SVG Version: 6.00 Build 0)  -->
<svg version="1.1" id="Layer_1" xmlns="http://www.w3.org/2000/svg" xmlns:xlink="http://www.w3.org/1999/xlink" x="0px" y="0px"
	 width="27.856px" height="20.499px" viewBox="0 0 27.856 20.499" enable-background="new 0 0 27.856 20.499" xml:space="preserve">
<g>
	<path fill="#fff" d="M2.202,1.152L12.236,9.1c0.455,0.36,1.082,0.52,1.691,0.49c0.609,0.029,1.236-0.13,1.691-0.49l10.034-7.948
		C26.454,0.518,26.272,0,25.252,0H13.928H2.603C1.582,0,1.401,0.518,2.202,1.152z"/>
	<path fill="#fff" d="M26.376,4.249l-10.965,8.324c-0.41,0.309-0.947,0.459-1.483,0.453c-0.536,0.006-1.073-0.145-1.483-0.453
		L1.48,4.249C0.666,3.632,0,3.963,0,4.984v13.659c0,1.021,0.836,1.856,1.857,1.856h12.071h12.071c1.021,0,1.857-0.836,1.857-1.856
		V4.984C27.857,3.963,27.191,3.632,26.376,4.249z"/>
</g>
</svg>
