<?xml version="1.0" encoding="utf-8"?>
<!-- Generator: Adobe Illustrator 21.0.0, SVG Export Plug-In . SVG Version: 6.00 Build 0)  -->
<svg version="1.1" id="Layer_1" xmlns="http://www.w3.org/2000/svg" xmlns:xlink="http://www.w3.org/1999/xlink" x="0px" y="0px"
	 viewBox="0 0 9.8 5.6" style="enable-background:new 0 0 9.8 5.6;" xml:space="preserve" fill="#fff">
<polygon points="9.8,0.7 9.1,0 4.9,4.2 0.7,0 0,0.7 4.2,4.9 4.2,4.9 4.9,5.6 5.6,4.9 5.6,4.9 "/>
</svg>
